﻿{
  "ApplicationType": "windows",
  "Browser": "edge",
  "StartUrlx": "",
  "StartUrl": "http://nv2k16iis01.bssdev.local/atlascm/?guid=090d2f05-2c06-4a1f-ac7c-f438fcf81599",
  "ApiUrl": "",
  "PositiveTimeout": 15,
  "NegativeTimeout": 2,
  "DateFormat": "UK",
  "AreaPath": "",
  "OutputOnly": false,
  "FeatureFileOnly": false,
  "ApiDatabaseName": "",
  "InstallLocation": "C:\\Program Files (x86)\\CGI\\CM Scene Search Application",
  "TimeoutMultiplie": 3,
  "SkipOnFailure": false,
  "FirstPage": "",
  "Debug": 7,
  "ProjectName": "SearchScene",
  "Version":  "0.3.11",



  "DatePickerButtonOpen": [
    "By.Name(\"PART_DropDownButton\")"
  ],
  "DatePickerText": [
    "By.ClassName(\"RadWatermarkTextBox\")",
    "By.Name(\"PART_DropDownButton\")"
  ],
  "DropDownItemLocators": [
    "By.ClassName(\"RadComboBoxItem\")",
    "By.TagName(\"option\")"
  ],
  "ListItemLocator": [
    "By.ClassName(\"RadListBoxItem\")"
  ],
  "SpinnerLocator": [
    "By.Id(\"loading\")"
  ],
  "StepperStepLocator": [
    "By.TagName(\"li\")"
  ],
  "TabLocator": [
    "By.ClassName(\"nav-item\")",
    "By.ClassName(\"RadTabItem\")"
  ],
  "TabTextLocator": [
    "By.TagName(\"span\")"
  ],
  "TablePrimaryColumnNumber": 1,
  "TableActions": [
    "accept & open",
    "view",
    "view exhibits",
    "view receipt",
    "upload",
    "...",
    "import exhibits",
    "select"
  ],
  "TableActionsLocator": [
    "By.XPath(\"//span[2]/button[1]\")",
    "By.XPath(\"//span[1]/button[1]\")",
    "By.XPath(\"//*[@Name='View Exhibits']\")",
    "By.Name(\"View Receipt\")",
    "By.Id(\"Upload\")",
    "By.Id(\"trigger\")",
    "By.Id(\"importExhibits\")",
    "By.ClassName(\"tdcenter\")"
  ],
  "TableHeadLocator": [
    "By.XPath(\"//thead\")",
    "By.ClassName(\"GridViewHeaderRow\")"
  ],
  "TableHeadCellsLocator": [
    "By.ClassName(\"header\")",
    "By.ClassName(\"GridViewHeaderCell\")",
    "By.ClassName(\"datatable-header-cell\")"
  ],
  "TableBodyLocator": [
    "By.ClassName(\"PART_GridViewVirtualizingPanel\")"
  ],
  "TableBodyRowLocator": [
    "By.XPath(\"//tbody/tr\")",
    "By.ClassName(\"GridViewRow\")",
    "By.ClassName(\"datatable-body-row\")"
  ],
  "TableBodyRowSubLocator": [
    "By.ClassName(\"ExhibitsSearchScene.JsonDAL.Models.Search\")"
  ],
  "TableBodyCellsLocator": [
    "By.ClassName(\"datatable-body-cell\")",
    "By.ClassName(\"GridViewCell\")",
    "By.XPath(\"./td\")"
  ],
  "TableFilterLocator": [
    "By.Id(\"searchBox\")"
  ],
  "TableNextPageButton": [
    "By.XPath(\"//button[contains(text(),'Next')]\")"
  ],
  "TablePreviousPageButton": [
    "By.XPath(\"//button[contains(text(),'Previous')]\")"
  ],
  "TimePickerButtonOpen": [
    "By.Name(\"PART_DropDownButton\")"
  ],
  "TimePickerText": [
    "By.ClassName(\"RadWatermarkTextBox\")"
  ],
  "TreeNodeLocator": [
    "By.ClassName(\"RadTreeViewItem\")",
    "By.ClassName(\"leaf\")"
  ],
  "TreeNodeSelector": [
        "By.ClassName(\"org\")"
  ],
  "TreeNodeToggleLocator": [
    "By.Id(\"Expander\")",
    "By.ClassName(\"hitarea\")"
  ],
  "TreeAddNodeText": [
    "new location"
  ],
  "TreeAddNodeButton": [
    "add new location"
  ]
}